<?xml version="1.0" encoding="UTF-8" ?>
<testsuite failures="0" time="1.5" errors="0" skipped="0" tests="17" name="com.ceiba.ejerciciopracticotdd.ventatdd.RunTest">
  <properties>
    <property name="java.runtime.name" value="Java(TM) SE Runtime Environment"/>
    <property name="sun.boot.library.path" value="D:\Archivos de programa\Java\jdk1.7.0_06\jre\bin"/>
    <property name="java.vm.version" value="23.2-b09"/>
    <property name="java.vm.vendor" value="Oracle Corporation"/>
    <property name="java.vendor.url" value="http://java.oracle.com/"/>
    <property name="path.separator" value=";"/>
    <property name="java.vm.name" value="Java HotSpot(TM) Client VM"/>
    <property name="file.encoding.pkg" value="sun.io"/>
    <property name="user.script" value=""/>
    <property name="user.country" value="ES"/>
    <property name="sun.java.launcher" value="SUN_STANDARD"/>
    <property name="sun.os.patch.level" value="Service Pack 3"/>
    <property name="test" value="com.ceiba.ejerciciopracticotdd.ventatdd.RunTest"/>
    <property name="java.vm.specification.name" value="Java Virtual Machine Specification"/>
    <property name="user.dir" value="C:\ProyectosMaven\EjercicioPracticoTDD\Venta"/>
    <property name="java.runtime.version" value="1.7.0_06-b24"/>
    <property name="java.awt.graphicsenv" value="sun.awt.Win32GraphicsEnvironment"/>
    <property name="basedir" value="C:\ProyectosMaven\EjercicioPracticoTDD\Venta"/>
    <property name="java.endorsed.dirs" value="D:\Archivos de programa\Java\jdk1.7.0_06\jre\lib\endorsed"/>
    <property name="os.arch" value="x86"/>
    <property name="surefire.real.class.path" value="C:\ProyectosMaven\EjercicioPracticoTDD\Venta\target\surefire\surefirebooter2058268831496588446.jar"/>
    <property name="java.io.tmpdir" value="D:\DOCUME~1\EDWARD~1\CONFIG~1\Temp\"/>
    <property name="line.separator" value="
"/>
    <property name="java.vm.specification.vendor" value="Oracle Corporation"/>
    <property name="user.variant" value=""/>
    <property name="os.name" value="Windows XP"/>
    <property name="sun.jnu.encoding" value="Cp1252"/>
    <property name="java.library.path" value="D:\Archivos de programa\Java\jdk1.7.0_06\jre\bin;D:\WINDOWS\Sun\Java\bin;D:\WINDOWS\system32;D:\WINDOWS;D:\WINDOWS\system32;D:\WINDOWS;D:\WINDOWS\System32\Wbem;D:\Archivos de programa\Java\jdk1.7.0_06\bin;D:\Archivos de programa\apache-maven-3.0.3\bin;D:\Archivos de programa\Git\cmd;."/>
    <property name="surefire.test.class.path" value="C:\ProyectosMaven\EjercicioPracticoTDD\Venta\target\test-classes;C:\ProyectosMaven\EjercicioPracticoTDD\Venta\target\classes;D:\Documents and Settings\Edward Rayo Cortés\.m2\repository\info\cukes\cucumber-core\1.1.3\cucumber-core-1.1.3.jar;D:\Documents and Settings\Edward Rayo Cortés\.m2\repository\info\cukes\cucumber-java\1.1.3\cucumber-java-1.1.3.jar;D:\Documents and Settings\Edward Rayo Cortés\.m2\repository\info\cukes\cucumber-junit\1.1.3\cucumber-junit-1.1.3.jar;D:\Documents and Settings\Edward Rayo Cortés\.m2\repository\info\cukes\cucumber-html\0.2.1\cucumber-html-0.2.1.jar;D:\Documents and Settings\Edward Rayo Cortés\.m2\repository\junit\junit\4.11\junit-4.11.jar;D:\Documents and Settings\Edward Rayo Cortés\.m2\repository\org\hamcrest\hamcrest-core\1.3\hamcrest-core-1.3.jar;"/>
    <property name="java.specification.name" value="Java Platform API Specification"/>
    <property name="java.class.version" value="51.0"/>
    <property name="sun.management.compiler" value="HotSpot Client Compiler"/>
    <property name="os.version" value="5.1"/>
    <property name="user.home" value="D:\Documents and Settings\Edward Rayo Cortés"/>
    <property name="user.timezone" value="America/Bogota"/>
    <property name="java.awt.printerjob" value="sun.awt.windows.WPrinterJob"/>
    <property name="java.specification.version" value="1.7"/>
    <property name="file.encoding" value="Cp1252"/>
    <property name="user.name" value="Edward Rayo Cortés"/>
    <property name="java.class.path" value="C:\ProyectosMaven\EjercicioPracticoTDD\Venta\target\test-classes;C:\ProyectosMaven\EjercicioPracticoTDD\Venta\target\classes;D:\Documents and Settings\Edward Rayo Cortés\.m2\repository\info\cukes\cucumber-core\1.1.3\cucumber-core-1.1.3.jar;D:\Documents and Settings\Edward Rayo Cortés\.m2\repository\info\cukes\cucumber-java\1.1.3\cucumber-java-1.1.3.jar;D:\Documents and Settings\Edward Rayo Cortés\.m2\repository\info\cukes\cucumber-junit\1.1.3\cucumber-junit-1.1.3.jar;D:\Documents and Settings\Edward Rayo Cortés\.m2\repository\info\cukes\cucumber-html\0.2.1\cucumber-html-0.2.1.jar;D:\Documents and Settings\Edward Rayo Cortés\.m2\repository\junit\junit\4.11\junit-4.11.jar;D:\Documents and Settings\Edward Rayo Cortés\.m2\repository\org\hamcrest\hamcrest-core\1.3\hamcrest-core-1.3.jar;"/>
    <property name="java.vm.specification.version" value="1.7"/>
    <property name="sun.arch.data.model" value="32"/>
    <property name="java.home" value="D:\Archivos de programa\Java\jdk1.7.0_06\jre"/>
    <property name="sun.java.command" value="C:\ProyectosMaven\EjercicioPracticoTDD\Venta\target\surefire\surefirebooter2058268831496588446.jar C:\ProyectosMaven\EjercicioPracticoTDD\Venta\target\surefire\surefire2031262485679740401tmp C:\ProyectosMaven\EjercicioPracticoTDD\Venta\target\surefire\surefire531393125872911201tmp"/>
    <property name="java.specification.vendor" value="Oracle Corporation"/>
    <property name="user.language" value="es"/>
    <property name="awt.toolkit" value="sun.awt.windows.WToolkit"/>
    <property name="java.vm.info" value="mixed mode, sharing"/>
    <property name="java.version" value="1.7.0_06"/>
    <property name="java.ext.dirs" value="D:\Archivos de programa\Java\jdk1.7.0_06\jre\lib\ext;D:\WINDOWS\Sun\Java\lib\ext"/>
    <property name="sun.boot.class.path" value="D:\Archivos de programa\Java\jdk1.7.0_06\jre\lib\resources.jar;D:\Archivos de programa\Java\jdk1.7.0_06\jre\lib\rt.jar;D:\Archivos de programa\Java\jdk1.7.0_06\jre\lib\sunrsasign.jar;D:\Archivos de programa\Java\jdk1.7.0_06\jre\lib\jsse.jar;D:\Archivos de programa\Java\jdk1.7.0_06\jre\lib\jce.jar;D:\Archivos de programa\Java\jdk1.7.0_06\jre\lib\charsets.jar;D:\Archivos de programa\Java\jdk1.7.0_06\jre\lib\jfr.jar;D:\Archivos de programa\Java\jdk1.7.0_06\jre\classes"/>
    <property name="java.vendor" value="Oracle Corporation"/>
    <property name="localRepository" value="D:\Documents and Settings\Edward Rayo Cortés\.m2\repository"/>
    <property name="file.separator" value="\"/>
    <property name="java.vendor.url.bug" value="http://bugreport.sun.com/bugreport/"/>
    <property name="sun.cpu.endian" value="little"/>
    <property name="sun.io.unicode.encoding" value="UnicodeLittle"/>
    <property name="sun.desktop" value="windows"/>
    <property name="sun.cpu.isalist" value="pentium_pro+mmx pentium_pro pentium+mmx pentium i486 i386 i86"/>
  </properties>
  <testcase time="0" classname="Scenario: Venta sin productos registrados" name="Given Un cajero registra ventas sin productos"/>
  <testcase time="0" classname="Scenario: Venta sin productos registrados" name="When El cajero intente calcular el valor"/>
  <testcase time="0" classname="Scenario: Venta sin productos registrados" name="Then La venta no se puede realizar. &quot;No presenta productos asociados&quot;"/>
  <testcase time="0" classname="Scenario: Venta sin productos registrados" name="Scenario: Venta sin productos registrados"/>
  <testcase time="0" classname="Scenario: Venta con productos sin precio unitario" name="Given Un cajero registra una venta con la siguiente lista de productos:"/>
  <testcase time="0" classname="Scenario: Venta con productos sin precio unitario" name="When El cajero intente calcular el valor"/>
  <testcase time="0" classname="Scenario: Venta con productos sin precio unitario" name="Then La venta no se puede realizar. &quot;Hay productos sin precio unitario&quot;"/>
  <testcase time="0.015" classname="Scenario: Venta con productos sin precio unitario" name="Scenario: Venta con productos sin precio unitario"/>
  <testcase time="0" classname="Scenario: Venta con productos sin cantidad" name="Given Un cajero registra una venta con la siguiente lista de productos:"/>
  <testcase time="0" classname="Scenario: Venta con productos sin cantidad" name="When El cajero intente calcular el valor"/>
  <testcase time="0" classname="Scenario: Venta con productos sin cantidad" name="Then La venta no se puede realizar. &quot;Hay productos sin cantidad&quot;"/>
  <testcase time="0" classname="Scenario: Venta con productos sin cantidad" name="Scenario: Venta con productos sin cantidad"/>
  <testcase time="0" classname="Scenario: Venta con productos sin cantidad" name="Given Un cajero registra una venta con la siguiente lista de productos:"/>
  <testcase time="0" classname="Scenario: Venta con productos sin cantidad" name="And la cedula del vendedor es &quot;&quot;"/>
  <testcase time="0" classname="Scenario: Venta con productos sin cantidad" name="When El cajero intente calcular el valor"/>
  <testcase time="0" classname="Scenario: Venta con productos sin cantidad" name="Then La venta no se puede realizar. &quot;No presenta vendedor asociado&quot;"/>
  <testcase time="0" classname="Scenario: Venta con productos sin cantidad" name="Scenario: Venta con productos sin cantidad"/>
</testsuite>